[gd_scene load_steps=3 format=2]

[ext_resource path="res://Scripts/Buildings/USSR/USSRFactory/USSRFactory.gd" type="Script" id=1]

[sub_resource type="CircleShape2D" id=1]
radius = 23.0

[node name="USSRFactory" type="StaticBody2D" groups=[
"Enemies",
"USSRFactory",
]]
script = ExtResource( 1 )
productionTime = 180
cost = 10000
max_health = 3000.0
health = 3000.0

[node name="CollisionShape2D" type="CollisionShape2D" parent="."]
shape = SubResource( 1 )
