[gd_resource type="Resource" load_steps=10 format=2]

[ext_resource path="res://Assets/Buttons/Units/Harvester/Harvester_disabled.png" type="Texture" id=1]
[ext_resource path="res://Assets/Buttons/Units/Harvester/Harvester_hovered.png" type="Texture" id=2]
[ext_resource path="res://Assets/Buttons/Units/Harvester/Harvester_pressed.png" type="Texture" id=3]
[ext_resource path="res://Assets/Buttons/Units/Harvester/Harvester_normal_blue.png" type="Texture" id=4]
[ext_resource path="res://Assets/Buttons/Units/Harvester/Harvester_ready_blue.png" type="Texture" id=5]
[ext_resource path="res://Assets/Buttons/Units/Harvester/Harvester_started.png" type="Texture" id=6]
[ext_resource path="res://Scripts/UI/ProductionButtonSkin.gd" type="Script" id=7]
[ext_resource path="res://Assets/Buttons/Units/Harvester/Harvester_1_of_3.png" type="Texture" id=8]
[ext_resource path="res://Assets/Buttons/Units/Harvester/Harvester_2_of_3.png" type="Texture" id=9]

[resource]
script = ExtResource( 7 )
productionName = "Harvester"
normal_icon = ExtResource( 4 )
pressed_icon = ExtResource( 3 )
hover_icon = ExtResource( 2 )
disabled_icon = ExtResource( 1 )
started_icon = ExtResource( 6 )
third_ready_icon = ExtResource( 8 )
two_third_ready_icon = ExtResource( 9 )
fully_ready_icon = ExtResource( 5 )
