[gd_resource type="Resource" load_steps=10 format=2]

[ext_resource path="res://Assets/Buttons/Buildings/Factory/Tank_hovered.png" type="Texture" id=1]
[ext_resource path="res://Assets/Buttons/Buildings/Factory/Tank_started.png" type="Texture" id=2]
[ext_resource path="res://Assets/Buttons/Buildings/Factory/Tank_pressed.png" type="Texture" id=3]
[ext_resource path="res://Assets/Buttons/Buildings/Factory/Tank_normal_blue.png" type="Texture" id=4]
[ext_resource path="res://Assets/Buttons/Buildings/Factory/Tank_1_of_3.png" type="Texture" id=5]
[ext_resource path="res://Assets/Buttons/Buildings/Factory/Tank_ready_blue.png" type="Texture" id=6]
[ext_resource path="res://Scripts/UI/ProductionButtonSkin.gd" type="Script" id=7]
[ext_resource path="res://Assets/Buttons/Buildings/Factory/Tank_disabled.png" type="Texture" id=8]
[ext_resource path="res://Assets/Buttons/Buildings/Factory/Tank_2_of_3.png" type="Texture" id=9]

[resource]
script = ExtResource( 7 )
productionName = "Factory"
normal_icon = ExtResource( 4 )
pressed_icon = ExtResource( 3 )
hover_icon = ExtResource( 1 )
disabled_icon = ExtResource( 8 )
started_icon = ExtResource( 2 )
third_ready_icon = ExtResource( 5 )
two_third_ready_icon = ExtResource( 9 )
fully_ready_icon = ExtResource( 6 )
