[gd_resource type="Resource" load_steps=10 format=2]

[ext_resource path="res://Assets/Buttons/Buildings/PowerPlant/PowerPlant_construction_2to4.png" type="Texture" id=1]
[ext_resource path="res://Assets/Buttons/Buildings/PowerPlant/PowerPlant_construction_3to4.png" type="Texture" id=2]
[ext_resource path="res://Assets/Buttons/Buildings/PowerPlant/PowerPlant_construction_full.png" type="Texture" id=3]
[ext_resource path="res://Assets/Buttons/Buildings/PowerPlant/PowerPlant_normal.png" type="Texture" id=4]
[ext_resource path="res://Assets/Buttons/Buildings/PowerPlant/PowerPlant_disabled.png" type="Texture" id=5]
[ext_resource path="res://Assets/Buttons/Buildings/PowerPlant/PowerPlant_construction_1to4.png" type="Texture" id=6]
[ext_resource path="res://Scripts/UI/ProductionButtonSkin.gd" type="Script" id=7]
[ext_resource path="res://Assets/Buttons/Buildings/PowerPlant/PowerPlant_pressed.png" type="Texture" id=8]
[ext_resource path="res://Assets/Buttons/Buildings/PowerPlant/PowerPlant_hover.png" type="Texture" id=9]

[resource]
script = ExtResource( 7 )
productionName = "PowerPlant"
normal_icon = ExtResource( 4 )
pressed_icon = ExtResource( 8 )
hover_icon = ExtResource( 9 )
disabled_icon = ExtResource( 5 )
started_icon = ExtResource( 6 )
third_ready_icon = ExtResource( 1 )
two_third_ready_icon = ExtResource( 2 )
fully_ready_icon = ExtResource( 3 )
