[gd_resource type="Resource" load_steps=10 format=2]

[ext_resource path="res://Scripts/UI/ProductionButtonSkin.gd" type="Script" id=1]
[ext_resource path="res://Assets/Buttons/Buildings/Aviation/Aviation_disabled.png" type="Texture" id=2]
[ext_resource path="res://Assets/Buttons/Buildings/Aviation/Aviation_hover.png" type="Texture" id=3]
[ext_resource path="res://Assets/Buttons/Buildings/Aviation/Aviation_normal_red.png" type="Texture" id=4]
[ext_resource path="res://Assets/Buttons/Buildings/Aviation/Aviation_pressed.png" type="Texture" id=5]
[ext_resource path="res://Assets/Buttons/Buildings/Aviation/Aviation_1_of_3.png" type="Texture" id=6]
[ext_resource path="res://Assets/Buttons/Buildings/Aviation/Aviation_started.png" type="Texture" id=7]
[ext_resource path="res://Assets/Buttons/Buildings/Aviation/Aviation_2_of_3.png" type="Texture" id=8]
[ext_resource path="res://Assets/Buttons/Buildings/Aviation/Aviation_ready_red.png" type="Texture" id=9]

[resource]
script = ExtResource( 1 )
productionName = "Aviation"
normal_icon = ExtResource( 4 )
pressed_icon = ExtResource( 5 )
hover_icon = ExtResource( 3 )
disabled_icon = ExtResource( 2 )
started_icon = ExtResource( 7 )
third_ready_icon = ExtResource( 6 )
two_third_ready_icon = ExtResource( 8 )
fully_ready_icon = ExtResource( 9 )
