[gd_resource type="Resource" load_steps=10 format=2]

[ext_resource path="res://Assets/Buttons/Buildings/Barraks/Soldier_hover.png" type="Texture" id=1]
[ext_resource path="res://Assets/Buttons/Buildings/Barraks/Soldier_ready_red.png" type="Texture" id=2]
[ext_resource path="res://Assets/Buttons/Buildings/Barraks/Soldier_started.png" type="Texture" id=3]
[ext_resource path="res://Assets/Buttons/Buildings/Barraks/Soldier_pressed.png" type="Texture" id=4]
[ext_resource path="res://Assets/Buttons/Buildings/Barraks/Soldier_normal_red.png" type="Texture" id=5]
[ext_resource path="res://Assets/Buttons/Buildings/Barraks/Soldier_disabled.png" type="Texture" id=6]
[ext_resource path="res://Assets/Buttons/Buildings/Barraks/Soldier_1_of_3.png" type="Texture" id=7]
[ext_resource path="res://Assets/Buttons/Buildings/Barraks/Soldier_2_of_3.png" type="Texture" id=8]
[ext_resource path="res://Scripts/UI/ProductionButtonSkin.gd" type="Script" id=9]

[resource]
script = ExtResource( 9 )
productionName = "Barraks"
normal_icon = ExtResource( 5 )
pressed_icon = ExtResource( 4 )
hover_icon = ExtResource( 1 )
disabled_icon = ExtResource( 6 )
started_icon = ExtResource( 3 )
third_ready_icon = ExtResource( 7 )
two_third_ready_icon = ExtResource( 8 )
fully_ready_icon = ExtResource( 2 )
