[gd_resource type="Resource" load_steps=3 format=2]

[ext_resource path="res://Scenes/Buildings/OreRefinery/OreRefinery.tscn" type="PackedScene" id=1]
[ext_resource path="res://Scenes/Managers/ProductionManager2/ProductionRecord.gd" type="Script" id=2]

[resource]
script = ExtResource( 2 )
productionName = "OreRefinery"
type = 0
movableMaterial = 0
cost = 300
energyConsume = 500
energyProduce = 0
productionTime = 5000
dependencies = [ "ConstructionYard", "PowerPlant" ]
productionScene = ExtResource( 1 )
rotatable = false
