[gd_resource type="Resource" load_steps=3 format=2]

[ext_resource path="res://Scenes/Units/Ship/Ship.tscn" type="PackedScene" id=1]
[ext_resource path="res://Scenes/Managers/ProductionManager2/ProductionRecord.gd" type="Script" id=2]

[resource]
script = ExtResource( 2 )
productionName = "Ship"
type = 2
movableMaterial = 1
cost = 500
energyConsume = 0
energyProduce = 0
productionTime = 5000
dependencies = [ "ShipYard" ]
productionScene = ExtResource( 1 )
rotatable = false
