[gd_scene load_steps=4 format=2]

[ext_resource path="res://Scripts/Buildings/USSR/USSROreRefinery/USSROreRefinery.gd" type="Script" id=1]

[sub_resource type="CapsuleShape2D" id=1]
radius = 15.0
height = 15.0

[sub_resource type="CapsuleShape2D" id=2]
radius = 7.0
height = 0.0

[node name="USSROreRefinery" type="StaticBody2D" groups=[
"Enemies",
"USSROreRefinery",
]]
input_pickable = true
script = ExtResource( 1 )
productionTime = 60
cost = 1000
max_health = 2000.0
health = 2000.0

[node name="CollisionShape2D" type="CollisionShape2D" parent="."]
position = Vector2( 8, 0 )
rotation = 1.5708
shape = SubResource( 1 )

[node name="CollisionShape2D2" type="CollisionShape2D" parent="."]
position = Vector2( 24, 24 )
shape = SubResource( 2 )

[node name="DeliveryPosition" type="Position2D" parent="."]
position = Vector2( 0, 24 )
[connection signal="mouse_entered" from="." to="." method="_on_Building_mouse_entered"]
[connection signal="mouse_exited" from="." to="." method="_on_Building_mouse_exited"]
