[gd_scene load_steps=3 format=2]

[ext_resource path="res://Scripts/Buildings/ContructionYard/ContructionYard.gd" type="Script" id=1]

[sub_resource type="RectangleShape2D" id=1]
extents = Vector2( 24, 24 )

[node name="ContructionYard" type="StaticBody2D" groups=[
"Building",
"ConstructionYard",
]]
input_pickable = true
collision_layer = 5
collision_mask = 2
script = ExtResource( 1 )
productionTime = 10
cost = 300
max_health = 5000.0
health = 5000.0

[node name="CollisionShape2D" type="CollisionShape2D" parent="."]
position = Vector2( 8, 8 )
shape = SubResource( 1 )

[connection signal="mouse_entered" from="." to="." method="_on_Building_mouse_entered"]
[connection signal="mouse_exited" from="." to="." method="_on_Building_mouse_exited"]
