[gd_scene load_steps=6 format=2]

[ext_resource path="res://Scenes/AI/AIController/AIController.tscn" type="PackedScene" id=1]
[ext_resource path="res://Scenes/World/TileMap.gd" type="Script" id=2]
[ext_resource path="res://TileSets/tiles.tres" type="TileSet" id=3]
[ext_resource path="res://Scripts/GameController/GameController.gd" type="Script" id=4]
[ext_resource path="res://Scenes/World/DrawLayer.gd" type="Script" id=5]

[node name="World" type="Node2D"]
script = ExtResource( 4 )

[node name="WaterNavigation" type="Navigation2D" parent="."]

[node name="TileMap" type="TileMap" parent="WaterNavigation"]
tile_set = ExtResource( 3 )
cell_size = Vector2( 16, 16 )
centered_textures = true
collision_layer = 0
collision_mask = 8
format = 1
script = ExtResource( 2 )

[node name="Navigation" type="Navigation2D" parent="."]

[node name="TileMap" type="TileMap" parent="Navigation"]
tile_set = ExtResource( 3 )
cell_size = Vector2( 16, 16 )
cell_tile_origin = 1
centered_textures = true
collision_layer = 0
collision_mask = 64
format = 1
tile_data = PoolIntArray( -1507352, 84, 0, -1507351, 84, 0, -1507350, 84, 0, -1507349, 84, 0, -1507348, 84, 0, -1507347, 84, 0, -1507346, 84, 0, -1507345, 84, 0, -1507344, 84, 0, -1507343, 84, 0, -1507342, 84, 0, -1507341, 2, 0, -1507340, 2, 0, -1507339, 2, 0, -1507338, 2, 0, -1507337, 2, 0, -1507336, 2, 0, -1507335, 2, 0, -1507334, 2, 0, -1507333, 2, 0, -1507332, 2, 0, -1507331, 2, 0, -1507330, 2, 0, -1507329, 2, 0, -1572864, 2, 0, -1572863, 2, 0, -1572862, 2, 0, -1572861, 2, 0, -1572860, 2, 0, -1572859, 2, 0, -1572858, 2, 0, -1572857, 2, 0, -1572856, 2, 0, -1572855, 2, 0, -1572854, 2, 0, -1572853, 2, 0, -1572852, 2, 0, -1572851, 2, 0, -1572850, 2, 0, -1572849, 2, 0, -1572848, 2, 0, -1572847, 2, 0, -1572846, 2, 0, -1572845, 2, 0, -1572844, 2, 0, -1572843, 2, 0, -1572842, 2, 0, -1572841, 2, 0, -1441816, 84, 0, -1441815, 84, 0, -1441814, 84, 0, -1441813, 84, 0, -1441812, 84, 0, -1441811, 84, 0, -1441810, 84, 0, -1441809, 84, 0, -1441808, 84, 0, -1441807, 84, 0, -1441806, 84, 0, -1441805, 2, 0, -1441804, 2, 0, -1441803, 2, 0, -1441802, 2, 0, -1441801, 2, 0, -1441800, 2, 0, -1441799, 2, 0, -1441798, 2, 0, -1441797, 2, 0, -1441796, 2, 0, -1441795, 2, 0, -1441794, 2, 0, -1441793, 2, 0, -1507328, 2, 0, -1507327, 2, 0, -1507326, 2, 0, -1507325, 2, 0, -1507324, 2, 0, -1507323, 2, 0, -1507322, 2, 0, -1507321, 2, 0, -1507320, 2, 0, -1507319, 2, 0, -1507318, 2, 0, -1507317, 2, 0, -1507316, 2, 0, -1507315, 2, 0, -1507314, 2, 0, -1507313, 2, 0, -1507312, 2, 0, -1507311, 2, 0, -1507310, 2, 0, -1507309, 2, 0, -1507308, 2, 0, -1507307, 2, 0, -1507306, 2, 0, -1507305, 2, 0, -1376280, 84, 0, -1376279, 84, 0, -1376278, 84, 0, -1376277, 84, 0, -1376276, 84, 0, -1376275, 84, 0, -1376274, 84, 0, -1376273, 84, 0, -1376272, 84, 0, -1376271, 84, 0, -1376270, 84, 0, -1376269, 2, 0, -1376268, 2, 0, -1376267, 2, 0, -1376266, 2, 0, -1376265, 2, 0, -1376264, 2, 0, -1376263, 2, 0, -1376262, 2, 0, -1376261, 2, 0, -1376260, 2, 0, -1376259, 2, 0, -1376258, 2, 0, -1376257, 2, 0, -1441792, 2, 0, -1441791, 2, 0, -1441790, 2, 0, -1441789, 2, 0, -1441788, 2, 0, -1441787, 2, 0, -1441786, 2, 0, -1441785, 2, 0, -1441784, 2, 0, -1441783, 2, 0, -1441782, 2, 0, -1441781, 2, 0, -1441780, 2, 0, -1441779, 2, 0, -1441778, 2, 0, -1441777, 2, 0, -1441776, 2, 0, -1441775, 2, 0, -1441774, 2, 0, -1441773, 2, 0, -1441772, 2, 0, -1441771, 2, 0, -1441770, 2, 0, -1441769, 2, 0, -1310744, 84, 0, -1310743, 84, 0, -1310742, 84, 0, -1310741, 84, 0, -1310740, 84, 0, -1310739, 84, 0, -1310738, 84, 0, -1310737, 84, 0, -1310736, 84, 0, -1310735, 84, 0, -1310734, 84, 0, -1310733, 84, 0, -1310732, 84, 0, -1310731, 84, 0, -1310730, 2, 0, -1310729, 2, 0, -1310728, 2, 0, -1310727, 2, 0, -1310726, 2, 0, -1310725, 2, 0, -1310724, 2, 0, -1310723, 2, 0, -1310722, 2, 0, -1310721, 2, 0, -1376256, 2, 0, -1376255, 2, 0, -1376254, 2, 0, -1376253, 2, 0, -1376252, 2, 0, -1376251, 2, 0, -1376250, 2, 0, -1376249, 2, 0, -1376248, 2, 0, -1376247, 2, 0, -1376246, 2, 0, -1376245, 2, 0, -1376244, 2, 0, -1376243, 2, 0, -1376242, 2, 0, -1376241, 2, 0, -1376240, 2, 0, -1376239, 2, 0, -1376238, 2, 0, -1376237, 2, 0, -1376236, 2, 0, -1376235, 2, 0, -1376234, 2, 0, -1376233, 2, 0, -1245208, 84, 0, -1245207, 84, 0, -1245206, 84, 0, -1245205, 84, 0, -1245204, 84, 0, -1245203, 84, 0, -1245202, 84, 0, -1245201, 84, 0, -1245200, 84, 0, -1245199, 84, 0, -1245198, 84, 0, -1245197, 84, 0, -1245196, 84, 0, -1245195, 84, 0, -1245194, 2, 0, -1245193, 2, 0, -1245192, 2, 0, -1245191, 2, 0, -1245190, 2, 0, -1245189, 2, 0, -1245188, 2, 0, -1245187, 2, 0, -1245186, 2, 0, -1245185, 2, 0, -1310720, 2, 0, -1310719, 2, 0, -1310718, 2, 0, -1310717, 2, 0, -1310716, 2, 0, -1310715, 2, 0, -1310714, 2, 0, -1310713, 2, 0, -1310712, 2, 0, -1310711, 2, 0, -1310710, 2, 0, -1310709, 2, 0, -1310708, 2, 0, -1310707, 2, 0, -1310706, 2, 0, -1310705, 2, 0, -1310704, 2, 0, -1310703, 2, 0, -1310702, 2, 0, -1310701, 2, 0, -1310700, 2, 0, -1310699, 2, 0, -1310698, 2, 0, -1310697, 2, 0, -1179672, 84, 0, -1179671, 84, 0, -1179670, 84, 0, -1179669, 84, 0, -1179668, 84, 0, -1179667, 84, 0, -1179666, 84, 0, -1179665, 84, 0, -1179664, 84, 0, -1179663, 84, 0, -1179662, 84, 0, -1179661, 84, 0, -1179660, 84, 0, -1179659, 84, 0, -1179658, 2, 0, -1179657, 2, 0, -1179656, 2, 0, -1179655, 2, 0, -1179654, 2, 0, -1179653, 2, 0, -1179652, 2, 0, -1179651, 2, 0, -1179650, 2, 0, -1179649, 2, 0, -1245184, 2, 0, -1245183, 2, 0, -1245182, 2, 0, -1245181, 2, 0, -1245180, 2, 0, -1245179, 2, 0, -1245178, 2, 0, -1245177, 2, 0, -1245176, 2, 0, -1245175, 2, 0, -1245174, 2, 0, -1245173, 2, 0, -1245172, 2, 0, -1245171, 2, 0, -1245170, 2, 0, -1245169, 2, 0, -1245168, 2, 0, -1245167, 2, 0, -1245166, 2, 0, -1245165, 2, 0, -1245164, 2, 0, -1245163, 2, 0, -1245162, 2, 0, -1245161, 2, 0, -1114136, 84, 0, -1114135, 84, 0, -1114134, 84, 0, -1114133, 84, 0, -1114132, 84, 0, -1114131, 84, 0, -1114130, 84, 0, -1114129, 84, 0, -1114128, 84, 0, -1114127, 84, 0, -1114126, 84, 0, -1114125, 84, 0, -1114124, 84, 0, -1114123, 84, 0, -1114122, 2, 0, -1114121, 2, 0, -1114120, 2, 0, -1114119, 2, 0, -1114118, 2, 0, -1114117, 2, 0, -1114116, 2, 0, -1114115, 2, 0, -1114114, 2, 0, -1114113, 2, 0, -1179648, 2, 0, -1179647, 2, 0, -1179646, 2, 0, -1179645, 2, 0, -1179644, 2, 0, -1179643, 2, 0, -1179642, 2, 0, -1179641, 2, 0, -1179640, 2, 0, -1179639, 2, 0, -1179638, 2, 0, -1179637, 2, 0, -1179636, 2, 0, -1179635, 2, 0, -1179634, 2, 0, -1179633, 2, 0, -1179632, 2, 0, -1179631, 2, 0, -1179630, 2, 0, -1179629, 2, 0, -1179628, 2, 0, -1179627, 2, 0, -1179626, 2, 0, -1179625, 2, 0, -1048600, 84, 0, -1048599, 84, 0, -1048598, 84, 0, -1048597, 84, 0, -1048596, 84, 0, -1048595, 84, 0, -1048594, 84, 0, -1048593, 84, 0, -1048592, 84, 0, -1048591, 84, 0, -1048590, 84, 0, -1048589, 84, 0, -1048588, 84, 0, -1048587, 84, 0, -1048586, 84, 0, -1048585, 84, 0, -1048584, 84, 0, -1048583, 2, 0, -1048582, 2, 0, -1048581, 2, 0, -1048580, 2, 0, -1048579, 2, 0, -1048578, 2, 0, -1048577, 2, 0, -1114112, 2, 0, -1114111, 2, 0, -1114110, 2, 0, -1114109, 2, 0, -1114108, 2, 0, -1114107, 2, 0, -1114106, 2, 0, -1114105, 2, 0, -1114104, 2, 0, -1114103, 2, 0, -1114102, 2, 0, -1114101, 2, 0, -1114100, 2, 0, -1114099, 2, 0, -1114098, 2, 0, -1114097, 2, 0, -1114096, 2, 0, -1114095, 2, 0, -1114094, 2, 0, -1114093, 2, 0, -1114092, 2, 0, -1114091, 2, 0, -1114090, 2, 0, -1114089, 2, 0, -983064, 84, 0, -983063, 84, 0, -983062, 84, 0, -983061, 84, 0, -983060, 84, 0, -983059, 84, 0, -983058, 84, 0, -983057, 84, 0, -983056, 84, 0, -983055, 84, 0, -983054, 84, 0, -983053, 84, 0, -983052, 84, 0, -983051, 84, 0, -983050, 84, 0, -983049, 84, 0, -983048, 84, 0, -983047, 2, 0, -983046, 2, 0, -983045, 2, 0, -983044, 2, 0, -983043, 2, 0, -983042, 2, 0, -983041, 2, 0, -1048576, 2, 0, -1048575, 2, 0, -1048574, 2, 0, -1048573, 2, 0, -1048572, 2, 0, -1048571, 2, 0, -1048570, 2, 0, -1048569, 2, 0, -1048568, 2, 0, -1048567, 2, 0, -1048566, 2, 0, -1048565, 2, 0, -1048564, 2, 0, -1048563, 2, 0, -1048562, 2, 0, -1048561, 2, 0, -1048560, 2, 0, -1048559, 2, 0, -1048558, 2, 0, -1048557, 2, 0, -1048556, 2, 0, -1048555, 2, 0, -1048554, 2, 0, -1048553, 2, 0, -917528, 2, 0, -917527, 84, 0, -917526, 84, 0, -917525, 84, 0, -917524, 84, 0, -917523, 84, 0, -917522, 84, 0, -917521, 84, 0, -917520, 84, 0, -917519, 84, 0, -917518, 84, 0, -917517, 84, 0, -917516, 84, 0, -917515, 84, 0, -917514, 84, 0, -917513, 84, 0, -917512, 84, 0, -917511, 2, 0, -917510, 2, 0, -917509, 2, 0, -917508, 2, 0, -917507, 2, 0, -917506, 2, 0, -917505, 2, 0, -983040, 2, 0, -983039, 2, 0, -983038, 2, 0, -983037, 2, 0, -983036, 2, 0, -983035, 2, 0, -983034, 2, 0, -983033, 2, 0, -983032, 2, 0, -983031, 2, 0, -983030, 2, 0, -983029, 2, 0, -983028, 2, 0, -983027, 2, 0, -983026, 2, 0, -983025, 2, 0, -983024, 2, 0, -983023, 2, 0, -983022, 2, 0, -983021, 2, 0, -983020, 2, 0, -983019, 2, 0, -983018, 83, 0, -983017, 83, 0, -851992, 2, 0, -851991, 2, 0, -851990, 84, 0, -851989, 84, 0, -851988, 84, 0, -851987, 84, 0, -851986, 84, 0, -851985, 84, 0, -851984, 84, 0, -851983, 84, 0, -851982, 84, 0, -851981, 84, 0, -851980, 84, 0, -851979, 84, 0, -851978, 84, 0, -851977, 84, 0, -851976, 84, 0, -851975, 83, 0, -851974, 83, 0, -851973, 83, 0, -851972, 83, 0, -851971, 83, 0, -851970, 83, 0, -851969, 2, 0, -917504, 2, 0, -917503, 2, 0, -917502, 2, 0, -917501, 2, 0, -917500, 2, 0, -917499, 2, 0, -917498, 2, 0, -917497, 2, 0, -917496, 2, 0, -917495, 2, 0, -917494, 2, 0, -917493, 2, 0, -917492, 2, 0, -917491, 2, 0, -917490, 2, 0, -917489, 2, 0, -917488, 2, 0, -917487, 2, 0, -917486, 2, 0, -917485, 2, 0, -917484, 2, 0, -917483, 2, 0, -917482, 83, 0, -917481, 2, 0, -786456, 2, 0, -786455, 2, 0, -786454, 2, 0, -786453, 2, 0, -786452, 84, 0, -786451, 84, 0, -786450, 84, 0, -786449, 84, 0, -786448, 84, 0, -786447, 84, 0, -786446, 84, 0, -786445, 84, 0, -786444, 84, 0, -786443, 84, 0, -786442, 84, 0, -786441, 84, 0, -786440, 84, 0, -786439, 84, 0, -786438, 2, 0, -786437, 2, 0, -786436, 2, 0, -786435, 2, 0, -786434, 83, 0, -786433, 83, 0, -851968, 83, 0, -851967, 83, 0, -851966, 83, 0, -851965, 2, 0, -851964, 2, 0, -851963, 2, 0, -851962, 2, 0, -851961, 83, 0, -851960, 83, 0, -851959, 2, 0, -851958, 2, 0, -851957, 2, 0, -851956, 2, 0, -851955, 2, 0, -851954, 2, 0, -851953, 2, 0, -851952, 2, 0, -851951, 2, 0, -851950, 2, 0, -851949, 2, 0, -851948, 2, 0, -851947, 83, 0, -851946, 83, 0, -851945, 2, 0, -720920, 2, 0, -720919, 2, 0, -720918, 2, 0, -720917, 2, 0, -720916, 2, 0, -720915, 84, 0, -720914, 84, 0, -720913, 84, 0, -720912, 84, 0, -720911, 84, 0, -720910, 84, 0, -720909, 84, 0, -720908, 84, 0, -720907, 84, 0, -720906, 84, 0, -720905, 84, 0, -720904, 84, 0, -720903, 84, 0, -720902, 84, 0, -720901, 2, 0, -720900, 2, 0, -720899, 2, 0, -720898, 2, 0, -720897, 2, 0, -786432, 2, 0, -786431, 2, 0, -786430, 2, 0, -786429, 2, 0, -786428, 2, 0, -786427, 2, 0, -786426, 2, 0, -786425, 2, 0, -786424, 83, 0, -786423, 83, 0, -786422, 83, 0, -786421, 83, 0, -786420, 83, 0, -786419, 83, 0, -786418, 83, 0, -786417, 83, 0, -786416, 2, 0, -786415, 2, 0, -786414, 2, 0, -786413, 2, 0, -786412, 83, 0, -786411, 83, 0, -786410, 2, 0, -786409, 2, 0, -655384, 2, 0, -655383, 2, 0, -655382, 2, 0, -655381, 2, 0, -655380, 2, 0, -655379, 2, 0, -655378, 84, 0, -655377, 84, 0, -655376, 84, 0, -655375, 84, 0, -655374, 84, 0, -655373, 84, 0, -655372, 84, 0, -655371, 84, 0, -655370, 84, 0, -655369, 84, 0, -655368, 84, 0, -655367, 84, 0, -655366, 84, 0, -655365, 84, 0, -655364, 2, 0, -655363, 2, 0, -655362, 2, 0, -655361, 2, 0, -720896, 2, 0, -720895, 2, 0, -720894, 2, 0, -720893, 2, 0, -720892, 2, 0, -720891, 2, 0, -720890, 2, 0, -720889, 2, 0, -720888, 2, 0, -720887, 2, 0, -720886, 2, 0, -720885, 2, 0, -720884, 2, 0, -720883, 2, 0, -720882, 2, 0, -720881, 2, 0, -720880, 2, 0, -720879, 2, 0, -720878, 2, 0, -720877, 2, 0, -720876, 2, 0, -720875, 2, 0, -720874, 2, 0, -720873, 2, 0, -589848, 2, 0, -589847, 0, 0, -589846, 0, 0, -589845, 2, 0, -589844, 2, 0, -589843, 2, 0, -589842, 2, 0, -589841, 84, 0, -589840, 84, 0, -589839, 84, 0, -589838, 84, 0, -589837, 84, 0, -589836, 84, 0, -589835, 84, 0, -589834, 84, 0, -589833, 84, 0, -589832, 84, 0, -589831, 84, 0, -589830, 84, 0, -589829, 84, 0, -589828, 84, 0, -589827, 2, 0, -589826, 2, 0, -589825, 2, 0, -655360, 2, 0, -655359, 2, 0, -655358, 2, 0, -655357, 2, 0, -655356, 2, 0, -655355, 2, 0, -655354, 2, 0, -655353, 2, 0, -655352, 2, 0, -655351, 2, 0, -655350, 2, 0, -655349, 2, 0, -655348, 2, 0, -655347, 2, 0, -655346, 2, 0, -655345, 2, 0, -655344, 2, 0, -655343, 2, 0, -655342, 2, 0, -655341, 2, 0, -655340, 2, 0, -655339, 2, 0, -655338, 2, 0, -655337, 2, 0, -524312, 0, 0, -524311, 0, 0, -524310, 0, 0, -524309, 0, 0, -524308, 0, 0, -524307, 0, 0, -524306, 2, 0, -524305, 84, 0, -524304, 84, 0, -524303, 84, 0, -524302, 84, 0, -524301, 84, 0, -524300, 84, 0, -524299, 84, 0, -524298, 84, 0, -524297, 84, 0, -524296, 84, 0, -524295, 84, 0, -524294, 84, 0, -524293, 84, 0, -524292, 84, 0, -524291, 84, 0, -524290, 84, 0, -524289, 2, 0, -589824, 2, 0, -589823, 2, 0, -589822, 2, 0, -589821, 2, 0, -589820, 2, 0, -589819, 2, 0, -589818, 2, 0, -589817, 2, 0, -589816, 2, 0, -589815, 2, 0, -589814, 2, 0, -589813, 2, 0, -589812, 2, 0, -589811, 2, 0, -589810, 2, 0, -589809, 2, 0, -589808, 2, 0, -589807, 2, 0, -589806, 2, 0, -589805, 2, 0, -589804, 2, 0, -589803, 2, 0, -589802, 2, 0, -589801, 2, 0, -458776, 0, 0, -458775, 0, 0, -458774, 0, 0, -458773, 0, 0, -458772, 0, 0, -458771, 0, 0, -458770, 0, 0, -458769, 2, 0, -458768, 84, 0, -458767, 84, 0, -458766, 84, 0, -458765, 84, 0, -458764, 84, 0, -458763, 84, 0, -458762, 84, 0, -458761, 84, 0, -458760, 84, 0, -458759, 84, 0, -458758, 84, 0, -458757, 84, 0, -458756, 84, 0, -458755, 84, 0, -458754, 84, 0, -458753, 84, 0, -524288, 2, 0, -524287, 2, 0, -524286, 2, 0, -524285, 2, 0, -524284, 2, 0, -524283, 2, 0, -524282, 2, 0, -524281, 2, 0, -524280, 2, 0, -524279, 2, 0, -524278, 2, 0, -524277, 2, 0, -524276, 2, 0, -524275, 2, 0, -524274, 2, 0, -524273, 2, 0, -524272, 2, 0, -524271, 2, 0, -524270, 2, 0, -524269, 2, 0, -524268, 2, 0, -524267, 2, 0, -524266, 2, 0, -524265, 2, 0, -393240, 0, 0, -393239, 0, 0, -393238, 0, 0, -393237, 0, 0, -393236, 0, 0, -393235, 0, 0, -393234, 0, 0, -393233, 0, 0, -393232, 84, 0, -393231, 84, 0, -393230, 84, 0, -393229, 84, 0, -393228, 84, 0, -393227, 84, 0, -393226, 84, 0, -393225, 84, 0, -393224, 84, 0, -393223, 84, 0, -393222, 84, 0, -393221, 84, 0, -393220, 84, 0, -393219, 84, 0, -393218, 84, 0, -393217, 84, 0, -458752, 2, 0, -458751, 2, 0, -458750, 2, 0, -458749, 2, 0, -458748, 2, 0, -458747, 2, 0, -458746, 2, 0, -458745, 2, 0, -458744, 2, 0, -458743, 2, 0, -458742, 2, 0, -458741, 2, 0, -458740, 2, 0, -458739, 2, 0, -458738, 2, 0, -458737, 2, 0, -458736, 2, 0, -458735, 2, 0, -458734, 2, 0, -458733, 2, 0, -458732, 2, 0, -458731, 2, 0, -458730, 2, 0, -458729, 2, 0, -327704, 0, 0, -327703, 0, 0, -327702, 0, 0, -327701, 0, 0, -327700, 0, 0, -327699, 0, 0, -327698, 0, 0, -327697, 0, 0, -327696, 0, 0, -327695, 84, 0, -327694, 84, 0, -327693, 84, 0, -327692, 84, 0, -327691, 84, 0, -327690, 84, 0, -327689, 84, 0, -327688, 84, 0, -327687, 84, 0, -327686, 84, 0, -327685, 84, 0, -327684, 84, 0, -327683, 84, 0, -327682, 84, 0, -327681, 84, 0, -393216, 2, 0, -393215, 2, 0, -393214, 2, 0, -393213, 2, 0, -393212, 2, 0, -393211, 2, 0, -393210, 2, 0, -393209, 2, 0, -393208, 2, 0, -393207, 2, 0, -393206, 2, 0, -393205, 2, 0, -393204, 2, 0, -393203, 2, 0, -393202, 2, 0, -393201, 2, 0, -393200, 2, 0, -393199, 2, 0, -393198, 2, 0, -393197, 2, 0, -393196, 2, 0, -393195, 2, 0, -393194, 2, 0, -393193, 2, 0, -262168, 0, 0, -262167, 0, 0, -262166, 0, 0, -262165, 0, 0, -262164, 0, 0, -262163, 0, 0, -262162, 0, 0, -262161, 0, 0, -262160, 0, 0, -262159, 0, 0, -262158, 84, 0, -262157, 84, 0, -262156, 84, 0, -262155, 84, 0, -262154, 84, 0, -262153, 84, 0, -262152, 84, 0, -262151, 84, 0, -262150, 84, 0, -262149, 84, 0, -262148, 84, 0, -262147, 84, 0, -262146, 84, 0, -262145, 2, 0, -327680, 2, 0, -327679, 2, 0, -327678, 2, 0, -327677, 2, 0, -327676, 2, 0, -327675, 2, 0, -327674, 2, 0, -327673, 2, 0, -327672, 2, 0, -327671, 2, 0, -327670, 2, 0, -327669, 2, 0, -327668, 2, 0, -327667, 2, 0, -327666, 2, 0, -327665, 2, 0, -327664, 2, 0, -327663, 2, 0, -327662, 2, 0, -327661, 2, 0, -327660, 2, 0, -327659, 2, 0, -327658, 2, 0, -327657, 2, 0, -196632, 2, 0, -196631, 0, 0, -196630, 0, 0, -196629, 0, 0, -196628, 0, 0, -196627, 0, 0, -196626, 0, 0, -196625, 0, 0, -196624, 0, 0, -196623, 0, 0, -196622, 2, 0, -196621, 84, 0, -196620, 84, 0, -196619, 84, 0, -196618, 84, 0, -196617, 84, 0, -196616, 84, 0, -196615, 84, 0, -196614, 84, 0, -196613, 84, 0, -196612, 84, 0, -196611, 84, 0, -196610, 2, 0, -196609, 2, 0, -262144, 2, 0, -262143, 2, 0, -262142, 2, 0, -262141, 2, 0, -262140, 2, 0, -262139, 2, 0, -262138, 2, 0, -262137, 2, 0, -262136, 2, 0, -262135, 2, 0, -262134, 2, 0, -262133, 2, 0, -262132, 2, 0, -262131, 2, 0, -262130, 2, 0, -262129, 2, 0, -262128, 2, 0, -262127, 2, 0, -262126, 2, 0, -262125, 2, 0, -262124, 2, 0, -262123, 2, 0, -262122, 2, 0, -262121, 2, 0, -131096, 2, 0, -131095, 0, 0, -131094, 0, 0, -131093, 0, 0, -131092, 0, 0, -131091, 0, 0, -131090, 0, 0, -131089, 0, 0, -131088, 0, 0, -131087, 0, 0, -131086, 2, 0, -131085, 2, 0, -131084, 84, 0, -131083, 84, 0, -131082, 84, 0, -131081, 84, 0, -131080, 84, 0, -131079, 84, 0, -131078, 84, 0, -131077, 84, 0, -131076, 84, 0, -131075, 2, 0, -131074, 2, 0, -131073, 2, 0, -196608, 2, 0, -196607, 2, 0, -196606, 2, 0, -196605, 2, 0, -196604, 2, 0, -196603, 2, 0, -196602, 2, 0, -196601, 2, 0, -196600, 2, 0, -196599, 2, 0, -196598, 2, 0, -196597, 2, 0, -196596, 2, 0, -196595, 2, 0, -196594, 2, 0, -196593, 2, 0, -196592, 2, 0, -196591, 2, 0, -196590, 2, 0, -196589, 2, 0, -196588, 2, 0, -196587, 2, 0, -196586, 2, 0, -196585, 2, 0, -65560, 2, 0, -65559, 2, 0, -65558, 0, 0, -65557, 0, 0, -65556, 0, 0, -65555, 0, 0, -65554, 0, 0, -65553, 0, 0, -65552, 0, 0, -65551, 0, 0, -65550, 2, 0, -65549, 2, 0, -65548, 2, 0, -65547, 84, 0, -65546, 84, 0, -65545, 84, 0, -65544, 84, 0, -65543, 84, 0, -65542, 84, 0, -65541, 84, 0, -65540, 84, 0, -65539, 2, 0, -65538, 2, 0, -65537, 2, 0, -131072, 2, 0, -131071, 2, 0, -131070, 2, 0, -131069, 2, 0, -131068, 2, 0, -131067, 2, 0, -131066, 2, 0, -131065, 2, 0, -131064, 2, 0, -131063, 2, 0, -131062, 2, 0, -131061, 2, 0, -131060, 2, 0, -131059, 2, 0, -131058, 2, 0, -131057, 2, 0, -131056, 2, 0, -131055, 0, 0, -131054, 0, 0, -131053, 0, 0, -131052, 0, 0, -131051, 0, 0, -131050, 0, 0, -131049, 0, 0, -24, 2, 0, -23, 2, 0, -22, 2, 0, -21, 2, 0, -20, 2, 0, -19, 0, 0, -18, 0, 0, -17, 0, 0, -16, 0, 0, -15, 0, 0, -14, 2, 0, -13, 2, 0, -12, 2, 0, -11, 2, 0, -10, 84, 0, -9, 84, 0, -8, 84, 0, -7, 84, 0, -6, 84, 0, -5, 84, 0, -4, 2, 0, -3, 2, 0, -2, 2, 0, -1, 2, 0, -65536, 2, 0, -65535, 2, 0, -65534, 2, 0, -65533, 2, 0, -65532, 2, 0, -65531, 2, 0, -65530, 2, 0, -65529, 2, 0, -65528, 2, 0, -65527, 2, 0, -65526, 2, 0, -65525, 2, 0, -65524, 2, 0, -65523, 0, 0, -65522, 0, 0, -65521, 0, 0, -65520, 2, 0, -65519, 0, 0, -65518, 0, 0, -65517, 0, 0, -65516, 0, 0, -65515, 0, 0, -65514, 0, 0, -65513, 0, 0, 65512, 2, 0, 65513, 2, 0, 65514, 2, 0, 65515, 2, 0, 65516, 2, 0, 65517, 2, 0, 65518, 2, 0, 65519, 2, 0, 65520, 2, 0, 65521, 2, 0, 65522, 2, 0, 65523, 2, 0, 65524, 2, 0, 65525, 2, 0, 65526, 2, 0, 65527, 2, 0, 65528, 2, 0, 65529, 2, 0, 65530, 2, 0, 65531, 2, 0, 65532, 2, 0, 65533, 2, 0, 65534, 2, 0, 65535, 2, 0, 0, 2, 0, 1, 2, 0, 2, 2, 0, 3, 84, 0, 4, 84, 0, 5, 84, 0, 6, 84, 0, 7, 84, 0, 8, 2, 0, 9, 2, 0, 10, 2, 0, 11, 2, 0, 12, 2, 0, 13, 0, 0, 14, 0, 0, 15, 0, 0, 16, 0, 0, 17, 0, 0, 18, 0, 0, 19, 0, 0, 20, 0, 0, 21, 0, 0, 22, 0, 0, 23, 0, 0, 131048, 2, 0, 131049, 2, 0, 131050, 2, 0, 131051, 2, 0, 131052, 2, 0, 131053, 2, 0, 131054, 2, 0, 131055, 2, 0, 131056, 2, 0, 131057, 2, 0, 131058, 2, 0, 131059, 2, 0, 131060, 2, 0, 131061, 2, 0, 131062, 2, 0, 131063, 2, 0, 131064, 2, 0, 131065, 2, 0, 131066, 2, 0, 131067, 2, 0, 131068, 2, 0, 131069, 2, 0, 131070, 2, 0, 131071, 2, 0, 65536, 2, 0, 65537, 2, 0, 65538, 2, 0, 65539, 84, 0, 65540, 84, 0, 65541, 84, 0, 65542, 84, 0, 65543, 84, 0, 65544, 2, 0, 65545, 2, 0, 65546, 2, 0, 65547, 2, 0, 65548, 2, 0, 65549, 2, 0, 65550, 0, 0, 65551, 0, 0, 65552, 0, 0, 65553, 0, 0, 65554, 0, 0, 65555, 0, 0, 65556, 0, 0, 65557, 0, 0, 65558, 0, 0, 65559, 0, 0, 196584, 2, 0, 196585, 2, 0, 196586, 2, 0, 196587, 2, 0, 196588, 2, 0, 196589, 2, 0, 196590, 2, 0, 196591, 2, 0, 196592, 2, 0, 196593, 2, 0, 196594, 2, 0, 196595, 2, 0, 196596, 2, 0, 196597, 2, 0, 196598, 2, 0, 196599, 2, 0, 196600, 2, 0, 196601, 2, 0, 196602, 2, 0, 196603, 2, 0, 196604, 2, 0, 196605, 2, 0, 196606, 2, 0, 196607, 2, 0, 131072, 2, 0, 131073, 2, 0, 131074, 2, 0, 131075, 84, 0, 131076, 84, 0, 131077, 84, 0, 131078, 84, 0, 131079, 84, 0, 131080, 2, 0, 131081, 2, 0, 131082, 2, 0, 131083, 2, 0, 131084, 2, 0, 131085, 2, 0, 131086, 2, 0, 131087, 2, 0, 131088, 0, 0, 131089, 0, 0, 131090, 0, 0, 131091, 0, 0, 131092, 0, 0, 131093, 0, 0, 131094, 0, 0, 131095, 0, 0, 262120, 2, 0, 262121, 2, 0, 262122, 2, 0, 262123, 2, 0, 262124, 2, 0, 262125, 2, 0, 262126, 2, 0, 262127, 2, 0, 262128, 2, 0, 262129, 2, 0, 262130, 2, 0, 262131, 2, 0, 262132, 2, 0, 262133, 2, 0, 262134, 2, 0, 262135, 2, 0, 262136, 2, 0, 262137, 2, 0, 262138, 2, 0, 262139, 2, 0, 262140, 2, 0, 262141, 2, 0, 262142, 2, 0, 262143, 2, 0, 196608, 2, 0, 196609, 2, 0, 196610, 84, 0, 196611, 84, 0, 196612, 84, 0, 196613, 84, 0, 196614, 84, 0, 196615, 84, 0, 196616, 84, 0, 196617, 2, 0, 196618, 2, 0, 196619, 2, 0, 196620, 2, 0, 196621, 2, 0, 196622, 2, 0, 196623, 2, 0, 196624, 2, 0, 196625, 0, 0, 196626, 0, 0, 196627, 0, 0, 196628, 0, 0, 196629, 0, 0, 196630, 0, 0, 196631, 0, 0, 327656, 2, 0, 327657, 2, 0, 327658, 2, 0, 327659, 2, 0, 327660, 2, 0, 327661, 2, 0, 327662, 2, 0, 327663, 2, 0, 327664, 2, 0, 327665, 2, 0, 327666, 2, 0, 327667, 2, 0, 327668, 2, 0, 327669, 2, 0, 327670, 2, 0, 327671, 2, 0, 327672, 2, 0, 327673, 2, 0, 327674, 2, 0, 327675, 2, 0, 327676, 2, 0, 327677, 2, 0, 327678, 2, 0, 327679, 2, 0, 262144, 2, 0, 262145, 84, 0, 262146, 84, 0, 262147, 84, 0, 262148, 84, 0, 262149, 84, 0, 262150, 84, 0, 262151, 84, 0, 262152, 84, 0, 262153, 84, 0, 262154, 84, 0, 262155, 2, 0, 262156, 2, 0, 262157, 2, 0, 262158, 2, 0, 262159, 2, 0, 262160, 2, 0, 262161, 0, 0, 262162, 0, 0, 262163, 0, 0, 262164, 0, 0, 262165, 0, 0, 262166, 0, 0, 262167, 0, 0, 393192, 2, 0, 393193, 2, 0, 393194, 2, 0, 393195, 2, 0, 393196, 2, 0, 393197, 2, 0, 393198, 2, 0, 393199, 2, 0, 393200, 2, 0, 393201, 2, 0, 393202, 2, 0, 393203, 2, 0, 393204, 2, 0, 393205, 2, 0, 393206, 2, 0, 393207, 2, 0, 393208, 2, 0, 393209, 2, 0, 393210, 2, 0, 393211, 2, 0, 393212, 2, 0, 393213, 2, 0, 393214, 2, 0, 393215, 2, 0, 327680, 84, 0, 327681, 84, 0, 327682, 84, 0, 327683, 84, 0, 327684, 84, 0, 327685, 84, 0, 327686, 84, 0, 327687, 84, 0, 327688, 84, 0, 327689, 84, 0, 327690, 84, 0, 327691, 84, 0, 327692, 2, 0, 327693, 2, 0, 327694, 2, 0, 327695, 2, 0, 327696, 2, 0, 327697, 2, 0, 327698, 0, 0, 327699, 0, 0, 327700, 0, 0, 327701, 0, 0, 327702, 0, 0, 327703, 0, 0, 458728, 2, 0, 458729, 2, 0, 458730, 2, 0, 458731, 2, 0, 458732, 2, 0, 458733, 2, 0, 458734, 2, 0, 458735, 2, 0, 458736, 2, 0, 458737, 2, 0, 458738, 2, 0, 458739, 2, 0, 458740, 2, 0, 458741, 2, 0, 458742, 2, 0, 458743, 2, 0, 458744, 2, 0, 458745, 2, 0, 458746, 2, 0, 458747, 2, 0, 458748, 2, 0, 458749, 2, 0, 458750, 2, 0, 458751, 84, 0, 393216, 84, 0, 393217, 84, 0, 393218, 84, 0, 393219, 84, 0, 393220, 84, 0, 393221, 84, 0, 393222, 84, 0, 393223, 84, 0, 393224, 84, 0, 393225, 84, 0, 393226, 84, 0, 393227, 84, 0, 393228, 84, 0, 393229, 2, 0, 393230, 2, 0, 393231, 2, 0, 393232, 2, 0, 393233, 2, 0, 393234, 2, 0, 393235, 0, 0, 393236, 0, 0, 393237, 0, 0, 393238, 0, 0, 393239, 0, 0, 524264, 2, 0, 524265, 2, 0, 524266, 2, 0, 524267, 2, 0, 524268, 2, 0, 524269, 2, 0, 524270, 2, 0, 524271, 2, 0, 524272, 2, 0, 524273, 2, 0, 524274, 2, 0, 524275, 2, 0, 524276, 2, 0, 524277, 2, 0, 524278, 2, 0, 524279, 2, 0, 524280, 2, 0, 524281, 2, 0, 524282, 2, 0, 524283, 2, 0, 524284, 2, 0, 524285, 2, 0, 524286, 2, 0, 524287, 84, 0, 458752, 84, 0, 458753, 84, 0, 458754, 84, 0, 458755, 84, 0, 458756, 84, 0, 458757, 84, 0, 458758, 84, 0, 458759, 84, 0, 458760, 84, 0, 458761, 84, 0, 458762, 84, 0, 458763, 84, 0, 458764, 84, 0, 458765, 84, 0, 458766, 84, 0, 458767, 2, 0, 458768, 2, 0, 458769, 2, 0, 458770, 2, 0, 458771, 2, 0, 458772, 2, 0, 458773, 2, 0, 458774, 2, 0, 458775, 2, 0, 589800, 83, 0, 589801, 83, 0, 589802, 2, 0, 589803, 2, 0, 589804, 2, 0, 589805, 2, 0, 589806, 2, 0, 589807, 2, 0, 589808, 2, 0, 589809, 2, 0, 589810, 2, 0, 589811, 2, 0, 589812, 2, 0, 589813, 2, 0, 589814, 2, 0, 589815, 2, 0, 589816, 2, 0, 589817, 2, 0, 589818, 2, 0, 589819, 2, 0, 589820, 2, 0, 589821, 2, 0, 589822, 2, 0, 589823, 2, 0, 524288, 84, 0, 524289, 84, 0, 524290, 84, 0, 524291, 84, 0, 524292, 84, 0, 524293, 84, 0, 524294, 84, 0, 524295, 84, 0, 524296, 84, 0, 524297, 84, 0, 524298, 84, 0, 524299, 84, 0, 524300, 84, 0, 524301, 84, 0, 524302, 84, 0, 524303, 84, 0, 524304, 2, 0, 524305, 2, 0, 524306, 2, 0, 524307, 2, 0, 524308, 2, 0, 524309, 2, 0, 524310, 2, 0, 524311, 2, 0, 655336, 2, 0, 655337, 83, 0, 655338, 83, 0, 655339, 2, 0, 655340, 2, 0, 655341, 2, 0, 655342, 2, 0, 655343, 2, 0, 655344, 2, 0, 655345, 2, 0, 655346, 2, 0, 655347, 2, 0, 655348, 2, 0, 655349, 2, 0, 655350, 2, 0, 655351, 2, 0, 655352, 2, 0, 655353, 2, 0, 655354, 2, 0, 655355, 2, 0, 655356, 2, 0, 655357, 2, 0, 655358, 2, 0, 655359, 2, 0, 589824, 84, 0, 589825, 84, 0, 589826, 84, 0, 589827, 84, 0, 589828, 84, 0, 589829, 84, 0, 589830, 84, 0, 589831, 84, 0, 589832, 84, 0, 589833, 84, 0, 589834, 84, 0, 589835, 84, 0, 589836, 84, 0, 589837, 84, 0, 589838, 84, 0, 589839, 84, 0, 589840, 84, 0, 589841, 84, 0, 589842, 2, 0, 589843, 2, 0, 589844, 2, 0, 589845, 2, 0, 589846, 2, 0, 589847, 2, 0, 720872, 2, 0, 720873, 2, 0, 720874, 83, 0, 720875, 2, 0, 720876, 2, 0, 720877, 2, 0, 720878, 2, 0, 720879, 83, 0, 720880, 2, 0, 720881, 2, 0, 720882, 2, 0, 720883, 2, 0, 720884, 2, 0, 720885, 2, 0, 720886, 2, 0, 720887, 2, 0, 720888, 2, 0, 720889, 2, 0, 720890, 2, 0, 720891, 2, 0, 720892, 2, 0, 720893, 2, 0, 720894, 2, 0, 720895, 2, 0, 655360, 2, 0, 655361, 84, 0, 655362, 84, 0, 655363, 84, 0, 655364, 84, 0, 655365, 84, 0, 655366, 84, 0, 655367, 84, 0, 655368, 84, 0, 655369, 84, 0, 655370, 84, 0, 655371, 84, 0, 655372, 84, 0, 655373, 84, 0, 655374, 84, 0, 655375, 84, 0, 655376, 84, 0, 655377, 84, 0, 655378, 84, 0, 655379, 2, 0, 655380, 2, 0, 655381, 2, 0, 655382, 2, 0, 655383, 2, 0, 786408, 2, 0, 786409, 2, 0, 786410, 2, 0, 786411, 2, 0, 786412, 2, 0, 786413, 2, 0, 786414, 2, 0, 786415, 83, 0, 786416, 83, 0, 786417, 83, 0, 786418, 2, 0, 786419, 2, 0, 786420, 2, 0, 786421, 2, 0, 786422, 2, 0, 786423, 2, 0, 786424, 2, 0, 786425, 2, 0, 786426, 2, 0, 786427, 2, 0, 786428, 2, 0, 786429, 2, 0, 786430, 2, 0, 786431, 2, 0, 720896, 2, 0, 720897, 2, 0, 720898, 84, 0, 720899, 84, 0, 720900, 84, 0, 720901, 84, 0, 720902, 84, 0, 720903, 84, 0, 720904, 84, 0, 720905, 84, 0, 720906, 84, 0, 720907, 84, 0, 720908, 84, 0, 720909, 84, 0, 720910, 84, 0, 720911, 84, 0, 720912, 84, 0, 720913, 84, 0, 720914, 84, 0, 720915, 84, 0, 720916, 2, 0, 720917, 2, 0, 720918, 2, 0, 720919, 2, 0, 851944, 2, 0, 851945, 2, 0, 851946, 2, 0, 851947, 2, 0, 851948, 2, 0, 851949, 2, 0, 851950, 2, 0, 851951, 2, 0, 851952, 2, 0, 851953, 83, 0, 851954, 83, 0, 851955, 83, 0, 851956, 83, 0, 851957, 83, 0, 851958, 83, 0, 851959, 83, 0, 851960, 2, 0, 851961, 2, 0, 851962, 2, 0, 851963, 2, 0, 851964, 83, 0, 851965, 83, 0, 851966, 83, 0, 851967, 83, 0, 786432, 2, 0, 786433, 2, 0, 786434, 2, 0, 786435, 84, 0, 786436, 84, 0, 786437, 84, 0, 786438, 84, 0, 786439, 84, 0, 786440, 84, 0, 786441, 84, 0, 786442, 84, 0, 786443, 84, 0, 786444, 84, 0, 786445, 84, 0, 786446, 84, 0, 786447, 84, 0, 786448, 84, 0, 786449, 84, 0, 786450, 84, 0, 786451, 84, 0, 786452, 84, 0, 786453, 2, 0, 786454, 2, 0, 786455, 2, 0, 917480, 2, 0, 917481, 2, 0, 917482, 2, 0, 917483, 2, 0, 917484, 2, 0, 917485, 2, 0, 917486, 2, 0, 917487, 2, 0, 917488, 2, 0, 917489, 2, 0, 917490, 2, 0, 917491, 2, 0, 917492, 2, 0, 917493, 2, 0, 917494, 2, 0, 917495, 2, 0, 917496, 2, 0, 917497, 2, 0, 917498, 2, 0, 917499, 2, 0, 917500, 2, 0, 917501, 2, 0, 917502, 2, 0, 917503, 83, 0, 851968, 83, 0, 851969, 83, 0, 851970, 83, 0, 851971, 83, 0, 851972, 83, 0, 851973, 84, 0, 851974, 84, 0, 851975, 84, 0, 851976, 84, 0, 851977, 84, 0, 851978, 84, 0, 851979, 84, 0, 851980, 84, 0, 851981, 84, 0, 851982, 84, 0, 851983, 84, 0, 851984, 84, 0, 851985, 84, 0, 851986, 84, 0, 851987, 84, 0, 851988, 84, 0, 851989, 84, 0, 851990, 84, 0, 851991, 2, 0, 983016, 2, 0, 983017, 2, 0, 983018, 2, 0, 983019, 2, 0, 983020, 2, 0, 983021, 2, 0, 983022, 2, 0, 983023, 2, 0, 983024, 2, 0, 983025, 2, 0, 983026, 2, 0, 983027, 2, 0, 983028, 2, 0, 983029, 2, 0, 983030, 2, 0, 983031, 2, 0, 983032, 2, 0, 983033, 2, 0, 983034, 2, 0, 983035, 2, 0, 983036, 2, 0, 983037, 2, 0, 983038, 2, 0, 983039, 2, 0, 917504, 2, 0, 917505, 2, 0, 917506, 2, 0, 917507, 83, 0, 917508, 83, 0, 917509, 84, 0, 917510, 84, 0, 917511, 84, 0, 917512, 84, 0, 917513, 84, 0, 917514, 84, 0, 917515, 84, 0, 917516, 84, 0, 917517, 84, 0, 917518, 84, 0, 917519, 84, 0, 917520, 84, 0, 917521, 84, 0, 917522, 84, 0, 917523, 84, 0, 917524, 84, 0, 917525, 84, 0, 917526, 84, 0, 917527, 84, 0, 1048552, 2, 0, 1048553, 2, 0, 1048554, 2, 0, 1048555, 2, 0, 1048556, 2, 0, 1048557, 2, 0, 1048558, 2, 0, 1048559, 2, 0, 1048560, 2, 0, 1048561, 2, 0, 1048562, 2, 0, 1048563, 2, 0, 1048564, 2, 0, 1048565, 2, 0, 1048566, 2, 0, 1048567, 2, 0, 1048568, 2, 0, 1048569, 2, 0, 1048570, 2, 0, 1048571, 2, 0, 1048572, 2, 0, 1048573, 2, 0, 1048574, 2, 0, 1048575, 2, 0, 983040, 2, 0, 983041, 2, 0, 983042, 2, 0, 983043, 2, 0, 983044, 2, 0, 983045, 2, 0, 983046, 84, 0, 983047, 84, 0, 983048, 84, 0, 983049, 84, 0, 983050, 84, 0, 983051, 84, 0, 983052, 84, 0, 983053, 84, 0, 983054, 84, 0, 983055, 84, 0, 983056, 84, 0, 983057, 84, 0, 983058, 84, 0, 983059, 84, 0, 983060, 84, 0, 983061, 84, 0, 983062, 84, 0, 983063, 84, 0, 1114088, 2, 0, 1114089, 2, 0, 1114090, 2, 0, 1114091, 2, 0, 1114092, 2, 0, 1114093, 2, 0, 1114094, 2, 0, 1114095, 2, 0, 1114096, 2, 0, 1114097, 2, 0, 1114098, 2, 0, 1114099, 2, 0, 1114100, 2, 0, 1114101, 2, 0, 1114102, 2, 0, 1114103, 2, 0, 1114104, 2, 0, 1114105, 2, 0, 1114106, 2, 0, 1114107, 2, 0, 1114108, 2, 0, 1114109, 2, 0, 1114110, 2, 0, 1114111, 2, 0, 1048576, 2, 0, 1048577, 2, 0, 1048578, 2, 0, 1048579, 2, 0, 1048580, 2, 0, 1048581, 2, 0, 1048582, 84, 0, 1048583, 84, 0, 1048584, 84, 0, 1048585, 84, 0, 1048586, 84, 0, 1048587, 84, 0, 1048588, 84, 0, 1048589, 84, 0, 1048590, 84, 0, 1048591, 84, 0, 1048592, 84, 0, 1048593, 84, 0, 1048594, 84, 0, 1048595, 84, 0, 1048596, 84, 0, 1048597, 84, 0, 1048598, 84, 0, 1048599, 84, 0, 1179624, 2, 0, 1179625, 2, 0, 1179626, 2, 0, 1179627, 2, 0, 1179628, 2, 0, 1179629, 2, 0, 1179630, 2, 0, 1179631, 2, 0, 1179632, 2, 0, 1179633, 2, 0, 1179634, 2, 0, 1179635, 2, 0, 1179636, 2, 0, 1179637, 2, 0, 1179638, 2, 0, 1179639, 2, 0, 1179640, 2, 0, 1179641, 2, 0, 1179642, 2, 0, 1179643, 2, 0, 1179644, 2, 0, 1179645, 2, 0, 1179646, 2, 0, 1179647, 2, 0, 1114112, 2, 0, 1114113, 2, 0, 1114114, 2, 0, 1114115, 2, 0, 1114116, 2, 0, 1114117, 2, 0, 1114118, 2, 0, 1114119, 2, 0, 1114120, 2, 0, 1114121, 84, 0, 1114122, 84, 0, 1114123, 84, 0, 1114124, 84, 0, 1114125, 84, 0, 1114126, 84, 0, 1114127, 84, 0, 1114128, 84, 0, 1114129, 84, 0, 1114130, 84, 0, 1114131, 84, 0, 1114132, 84, 0, 1114133, 84, 0, 1114134, 84, 0, 1114135, 84, 0, 1245160, 2, 0, 1245161, 2, 0, 1245162, 2, 0, 1245163, 2, 0, 1245164, 2, 0, 1245165, 2, 0, 1245166, 2, 0, 1245167, 2, 0, 1245168, 2, 0, 1245169, 2, 0, 1245170, 2, 0, 1245171, 2, 0, 1245172, 2, 0, 1245173, 2, 0, 1245174, 2, 0, 1245175, 2, 0, 1245176, 2, 0, 1245177, 2, 0, 1245178, 2, 0, 1245179, 2, 0, 1245180, 2, 0, 1245181, 2, 0, 1245182, 2, 0, 1245183, 2, 0, 1179648, 2, 0, 1179649, 2, 0, 1179650, 2, 0, 1179651, 2, 0, 1179652, 2, 0, 1179653, 2, 0, 1179654, 2, 0, 1179655, 2, 0, 1179656, 2, 0, 1179657, 2, 0, 1179658, 2, 0, 1179659, 2, 0, 1179660, 84, 0, 1179661, 84, 0, 1179662, 84, 0, 1179663, 84, 0, 1179664, 84, 0, 1179665, 84, 0, 1179666, 84, 0, 1179667, 84, 0, 1179668, 84, 0, 1179669, 84, 0, 1179670, 84, 0, 1179671, 84, 0, 1310696, 2, 0, 1310697, 2, 0, 1310698, 2, 0, 1310699, 2, 0, 1310700, 2, 0, 1310701, 2, 0, 1310702, 2, 0, 1310703, 2, 0, 1310704, 2, 0, 1310705, 2, 0, 1310706, 2, 0, 1310707, 2, 0, 1310708, 2, 0, 1310709, 2, 0, 1310710, 2, 0, 1310711, 2, 0, 1310712, 2, 0, 1310713, 2, 0, 1310714, 2, 0, 1310715, 2, 0, 1310716, 2, 0, 1310717, 2, 0, 1310718, 2, 0, 1310719, 2, 0, 1245184, 2, 0, 1245185, 2, 0, 1245186, 2, 0, 1245187, 2, 0, 1245188, 2, 0, 1245189, 2, 0, 1245190, 2, 0, 1245191, 2, 0, 1245192, 2, 0, 1245193, 2, 0, 1245194, 2, 0, 1245195, 2, 0, 1245196, 84, 0, 1245197, 84, 0, 1245198, 84, 0, 1245199, 84, 0, 1245200, 84, 0, 1245201, 84, 0, 1245202, 84, 0, 1245203, 84, 0, 1245204, 84, 0, 1245205, 84, 0, 1245206, 84, 0, 1245207, 84, 0, 1376232, 2, 0, 1376233, 2, 0, 1376234, 2, 0, 1376235, 2, 0, 1376236, 2, 0, 1376237, 2, 0, 1376238, 2, 0, 1376239, 2, 0, 1376240, 2, 0, 1376241, 2, 0, 1376242, 2, 0, 1376243, 2, 0, 1376244, 2, 0, 1376245, 2, 0, 1376246, 2, 0, 1376247, 2, 0, 1376248, 2, 0, 1376249, 2, 0, 1376250, 2, 0, 1376251, 2, 0, 1376252, 2, 0, 1376253, 2, 0, 1376254, 2, 0, 1376255, 2, 0, 1310720, 2, 0, 1310721, 2, 0, 1310722, 2, 0, 1310723, 2, 0, 1310724, 2, 0, 1310725, 2, 0, 1310726, 2, 0, 1310727, 2, 0, 1310728, 2, 0, 1310729, 2, 0, 1310730, 2, 0, 1310731, 2, 0, 1310732, 84, 0, 1310733, 84, 0, 1310734, 84, 0, 1310735, 84, 0, 1310736, 84, 0, 1310737, 84, 0, 1310738, 84, 0, 1310739, 84, 0, 1310740, 84, 0, 1310741, 84, 0, 1310742, 84, 0, 1310743, 84, 0, 1441768, 2, 0, 1441769, 2, 0, 1441770, 2, 0, 1441771, 2, 0, 1441772, 2, 0, 1441773, 2, 0, 1441774, 2, 0, 1441775, 2, 0, 1441776, 2, 0, 1441777, 2, 0, 1441778, 2, 0, 1441779, 2, 0, 1441780, 2, 0, 1441781, 2, 0, 1441782, 2, 0, 1441783, 2, 0, 1441784, 2, 0, 1441785, 2, 0, 1441786, 2, 0, 1441787, 2, 0, 1441788, 2, 0, 1441789, 2, 0, 1441790, 2, 0, 1441791, 2, 0, 1376256, 2, 0, 1376257, 2, 0, 1376258, 2, 0, 1376259, 2, 0, 1376260, 2, 0, 1376261, 2, 0, 1376262, 2, 0, 1376263, 2, 0, 1376264, 2, 0, 1376265, 2, 0, 1376266, 2, 0, 1376267, 2, 0, 1376268, 2, 0, 1376269, 2, 0, 1376270, 2, 0, 1376271, 84, 0, 1376272, 84, 0, 1376273, 84, 0, 1376274, 84, 0, 1376275, 84, 0, 1376276, 84, 0, 1376277, 84, 0, 1376278, 84, 0, 1376279, 84, 0, 1507304, 2, 0, 1507305, 2, 0, 1507306, 2, 0, 1507307, 2, 0, 1507308, 2, 0, 1507309, 2, 0, 1507310, 2, 0, 1507311, 2, 0, 1507312, 2, 0, 1507313, 2, 0, 1507314, 2, 0, 1507315, 2, 0, 1507316, 2, 0, 1507317, 2, 0, 1507318, 2, 0, 1507319, 2, 0, 1507320, 2, 0, 1507321, 2, 0, 1507322, 2, 0, 1507323, 2, 0, 1507324, 2, 0, 1507325, 2, 0, 1507326, 2, 0, 1507327, 2, 0, 1441792, 2, 0, 1441793, 2, 0, 1441794, 2, 0, 1441795, 2, 0, 1441796, 2, 0, 1441797, 2, 0, 1441798, 2, 0, 1441799, 2, 0, 1441800, 2, 0, 1441801, 2, 0, 1441802, 2, 0, 1441803, 2, 0, 1441804, 2, 0, 1441805, 2, 0, 1441806, 2, 0, 1441807, 84, 0, 1441808, 84, 0, 1441809, 84, 0, 1441810, 84, 0, 1441811, 84, 0, 1441812, 84, 0, 1441813, 84, 0, 1441814, 84, 0, 1441815, 84, 0, 1572840, 2, 0, 1572841, 2, 0, 1572842, 2, 0, 1572843, 2, 0, 1572844, 2, 0, 1572845, 2, 0, 1572846, 2, 0, 1572847, 2, 0, 1572848, 2, 0, 1572849, 2, 0, 1572850, 2, 0, 1572851, 2, 0, 1572852, 2, 0, 1572853, 2, 0, 1572854, 2, 0, 1572855, 2, 0, 1572856, 2, 0, 1572857, 2, 0, 1572858, 2, 0, 1572859, 2, 0, 1572860, 2, 0, 1572861, 2, 0, 1572862, 2, 0, 1572863, 2, 0, 1507328, 2, 0, 1507329, 2, 0, 1507330, 2, 0, 1507331, 2, 0, 1507332, 2, 0, 1507333, 2, 0, 1507334, 2, 0, 1507335, 2, 0, 1507336, 2, 0, 1507337, 2, 0, 1507338, 2, 0, 1507339, 2, 0, 1507340, 2, 0, 1507341, 2, 0, 1507342, 2, 0, 1507343, 84, 0, 1507344, 84, 0, 1507345, 84, 0, 1507346, 84, 0, 1507347, 84, 0, 1507348, 84, 0, 1507349, 84, 0, 1507350, 84, 0, 1507351, 84, 0 )
script = ExtResource( 2 )
drawLayerPath = NodePath("../Node2D")

[node name="Node2D" type="Node2D" parent="Navigation"]
position = Vector2( -384, -384 )
script = ExtResource( 5 )
tilemapPath = NodePath("../TileMap")

[node name="AIController" parent="." instance=ExtResource( 1 )]
worldPath = NodePath("..")
tilemapPath = NodePath("../Navigation/TileMap")
goodBuildingPlaceTileName = "good_building_place_tile"
badBuildingPlaceTileName = "bad_building_place_tile"
groundTileName = "ground_tile"
oreTileName = "ore_tile"

[node name="MCVPositions" type="Node2D" parent="."]

[node name="StartPosition1" type="Position2D" parent="MCVPositions" groups=[
"MCVPosition",
]]
position = Vector2( -48, -304 )

[node name="StartPosition2" type="Position2D" parent="MCVPositions" groups=[
"MCVPosition",
]]
position = Vector2( 32, 320 )

[node name="CPUBaseStartPos1" type="Position2D" parent="MCVPositions" groups=[
"CPUMCVPosition",
]]
position = Vector2( -320, 304 )

[node name="CPUBaseStartPos2" type="Position2D" parent="MCVPositions" groups=[
"CPUMCVPosition",
]]
position = Vector2( 320, -336 )
