[gd_scene load_steps=3 format=2]

[ext_resource path="res://Scripts/Buildings/USSR/USSRBarraks/USSRBarraks.gd" type="Script" id=1]

[sub_resource type="CircleShape2D" id=1]
radius = 23.0

[node name="USSRBarraks" type="StaticBody2D" groups=[
"Enemies",
"USSRBarraks",
]]
script = ExtResource( 1 )
buildingName = "USSRBarraks"
productionTime = 30
cost = 2000
max_health = 1000.0
health = 1000.0

[node name="CollisionShape2D" type="CollisionShape2D" parent="."]
shape = SubResource( 1 )
