[gd_scene load_steps=6 format=2]

[ext_resource path="res://Assets/Sprites/ussr_harvester_right.png" type="Texture" id=1]
[ext_resource path="res://Assets/Sprites/selected_harvester_right.png" type="Texture" id=2]
[ext_resource path="res://Scripts/Unit/USSRHarvester.gd" type="Script" id=3]

[sub_resource type="SpriteFrames" id=1]
animations = [ {
"frames": [ ExtResource( 1 ) ],
"loop": true,
"name": "default",
"speed": 5.0
}, {
"frames": [ ExtResource( 2 ) ],
"loop": true,
"name": "selected",
"speed": 5.0
} ]

[sub_resource type="CircleShape2D" id=2]
radius = 8.0

[node name="USSRHarvester" type="KinematicBody2D" groups=[
"Enemies",
"EnemyUnit",
"USSRHarvester",
]]
script = ExtResource( 3 )
unitName = "USSRHarvester"
productionTime = 120
cost = 3000
can_harvest = true
harvestTimerPath = NodePath("HarvestTimer")
max_health = 500.0
health = 500.0

[node name="AnimatedSprite" type="AnimatedSprite" parent="."]
frames = SubResource( 1 )

[node name="CollisionShape2D" type="CollisionShape2D" parent="."]
shape = SubResource( 2 )

[node name="HarvestTimer" type="Timer" parent="."]
one_shot = true

[connection signal="input_event" from="." to="." method="_on_Unit_input_event"]
[connection signal="mouse_entered" from="." to="." method="_on_Unit_mouse_entered"]
[connection signal="mouse_exited" from="." to="." method="_on_Unit_mouse_exited"]
