[gd_resource type="Resource" load_steps=2 format=2]

[sub_resource type="GDScript" id=1]
script/source = "extends Resource

#the radius of the constraining circle for the wander behavior
export (float) var WanderRad    : = 1.2;
#distance the wander circle is projected in front of the agent
export (float)  var WanderDist   : = 2.0;
#the maximum amount of displacement along the circle each frame
export (float) var WanderJitterPerSec : = 40.0;

# use these values to tweak the amount that each steering force
# contributes to the total steering force
export (float) var SeparationWeight : = 2.0
export (float) var AlignmentWeight : = 0.5
export (float) var CohesionWeight : = 0.2
export (float) var WanderWeight : = 1.0
export (float) var WallAvoidanceWeight : = 10.0
export (float) var ObstaclesAvoidanceWeight : = 10.0
export (float) var ViewDistance : = 15.0
export (float) var WallDetectionFeelerLength : = 25.0
export (float) var SeekWeight : = 0.5
export (float) var FleeWeight : = 0.5
export (float) var ArriveWeight : = 1.0
"

[resource]
resource_local_to_scene = true
script = SubResource( 1 )
WanderRad = 1.2
WanderDist = 2.0
WanderJitterPerSec = 40.0
SeparationWeight = 2.2
AlignmentWeight = 0.3
CohesionWeight = 0.2
WanderWeight = 1.0
WallAvoidanceWeight = 10.0
ObstaclesAvoidanceWeight = 1.0
ViewDistance = 15.0
WallDetectionFeelerLength = 70.0
SeekWeight = 0.5
FleeWeight = 0.5
ArriveWeight = 1.0
